Fecundity
…
eye_df = readr::read_delim(eye_dat_file,
                           delim = "\t",
                           col_types = c("cdc"))

eye_df %>% 
  DT::datatable()

5.2 Explore data

# How many of each line and sex?
eye_df %>% 
  dplyr::count(line, gender)

## # A tibble: 152 × 3
##    line  gender     n
##    <chr> <chr>  <int>
##  1 10-1  Female     2
##  2 10-1  Male       3
##  3 104-1 Female     2
##  4 104-1 Male       1
##  5 106-1 Female     2
##  6 106-1 Male       1
##  7 106-2 Female     2
##  8 106-2 Male       1
##  9 11-1  Female     2
## 10 11-1  Male       1
## # … with 142 more rows
…
