…
```r
# How many duplicates?
sv_df_all %>%
  dplyr::filter(SVTYPE %in% c("DEL", "INS") & FILTER == "PASS") %>%
  group_by(DATASET, SAMPLE) %>%
  summarise(length(which(duplicated(ID))))
```

```
## `summarise()` has grouped output by 'DATASET'. You can override using the `.groups` argument.
```

```
## # A tibble: 22 × 3
## # Groups:   DATASET [2]
##    DATASET    SAMPLE `length(which(duplicated(ID)))`
##    <fct>      <fct>                            <int>
##  1 unpolished 4-1                                  5
##  2 unpolished 4-2                                  3
##  3 unpolished 7-1                                  1
##  4 unpolished 7-2                                  3
##  5 unpolished 11-1                                 0
##  6 unpolished 69-1                                 1
##  7 unpolished 79-2                                 2
##  8 unpolished 80-1                                 0
##  9 unpolished 117-2                                0
## 10 unpolished 131-1                                4
## # … with 12 more rows
```
…
